[
    {
        "id": "1",
        "first_name": "Brietta",
        "last_name": "Adelberg",
        "email": "badelberg0@cbsnews.com",
        "gender": "Female",
        "ip_address": "28.33.88.214"
    },
    {
        "id": "2",
        "first_name": "Baxy",
        "last_name": "Brettel",
        "email": "bbrettel1@deviantart.com",
        "gender": "Male",
        "ip_address": "148.112.168.206"
    },
    {
        "id": "3",
        "first_name": "Lory",
        "last_name": "Kinsell",
        "email": "lkinsell2@abc.net.au",
        "gender": "Female",
        "ip_address": "250.228.76.177"
    },
    {
        "id": "4",
        "first_name": "Maryanne",
        "last_name": "Ridwood",
        "email": "mridwood3@cnet.com",
        "gender": "Female",
        "ip_address": "51.15.73.141"
    },
    {
        "id": "5",
        "first_name": "Arlette",
        "last_name": "While",
        "email": "awhile4@columbia.edu",
        "gender": "Female",
        "ip_address": "132.249.203.150"
    },
    {
        "id": "6",
        "first_name": "Doralyn",
        "last_name": "Trumpeter",
        "email": "dtrumpeter5@businesswire.com",
        "gender": "Female",
        "ip_address": "177.42.45.79"
    },
    {
        "id": "7",
        "first_name": "Candida",
        "last_name": "Orrett",
        "email": "corrett6@nbcnews.com",
        "gender": "Female",
        "ip_address": "45.57.181.142"
    },
    {
        "id": "8",
        "first_name": "Elvyn",
        "last_name": "Shovelbottom",
        "email": "eshovelbottom7@hhs.gov",
        "gender": "Male",
        "ip_address": "252.149.105.96"
    },
    {
        "id": "9",
        "first_name": "Silvester",
        "last_name": "Burkman",
        "email": "sburkman8@oaic.gov.au",
        "gender": "Male",
        "ip_address": "65.116.141.178"
    },
    {
        "id": "10",
        "first_name": "Alaster",
        "last_name": "Olekhov",
        "email": "aolekhov9@blogtalkradio.com",
        "gender": "Male",
        "ip_address": "219.65.121.130"
    }
]